<?xml version="1.0" encoding="UTF-8"?>
<svg width="16px" height="12px" viewBox="0 0 16 12" version="1.1" xmlns="http://www.w3.org/2000/svg" xmlns:xlink="http://www.w3.org/1999/xlink">
    <!-- Generator: sketchtool 52.6 (67491) - http://www.bohemiancoding.com/sketch -->
    <title>40DCDE81-3029-4E84-B19C-287E75B04EEC</title>
    <desc>Created with sketchtool.</desc>
    <g id="More_Landing_Page" stroke="none" stroke-width="1" fill="none" fill-rule="evenodd">
        <g id="01_More" transform="translate(-28.000000, -187.000000)">
            <g id="Teams-icon" transform="translate(28.000000, 185.000000)">
                <rect id="Bounds" fill-rule="nonzero" x="0" y="0" width="16" height="16"></rect>
                <g id="Group-6" transform="translate(0.000000, 2.000000)">
                    <g id="Group-5" transform="translate(0.000000, 0.000000)" fill="#D44030">
                        <path d="M5.27016655,7.00058388 C7.03227195,7.00058388 10.5412303,7.9357491 10.5412303,9.80035986 L10.5412303,11.1997712 L6.75015599e-14,11.1997712 L6.75015599e-14,9.80035986 C6.75015599e-14,7.9357491 3.50895836,7.00058388 5.27016655,7.00058388 Z M5.27016655,5.60050524 C3.81759596,5.60050524 2.63508328,4.34408551 2.63508328,2.79977598 C2.63508328,1.25546645 3.81759596,-1.28785871e-14 5.27016655,-1.28785871e-14 C6.72363434,-1.28785871e-14 7.90614703,1.25546645 7.90614703,2.79977598 C7.90614703,4.34408551 6.72363434,5.60050524 5.27016655,5.60050524 Z M10.5710174,7.0480571 C12.4237403,7.26445109 15.0588235,8.18341059 15.0588235,9.80016921 L15.0588235,11.1995806 L12.0478125,11.1995806 L12.0478125,9.80016921 C12.0478125,8.61619857 11.4448925,7.72011773 10.5710174,7.0480571 Z M9.78865698,5.60050524 C9.38222432,5.60050524 9.00539934,5.49659799 8.65907923,5.32024166 C9.13369927,4.60814337 9.411832,3.73589447 9.411832,2.79977598 C9.411832,1.86365749 9.13369927,0.992361864 8.65907923,0.280263581 C9.00539934,0.103907246 9.38222432,-1.28785871e-14 9.78865698,-1.28785871e-14 C11.2412276,-1.28785871e-14 12.4246375,1.25546645 12.4246375,2.79977598 C12.4246375,4.34408551 11.2412276,5.60050524 9.78865698,5.60050524 Z" id="Combined-Shape"></path>
                    </g>
                    <g id="Group-10" transform="translate(7.972318, 0.000000)"></g>
                </g>
            </g>
        </g>
    </g>
</svg>