<svg xmlns="http://www.w3.org/2000/svg" width="18" height="20" viewBox="0 0 18 20">
    <g fill="none" fill-rule="evenodd">
        <path d="M-1 0h20v20H-1z"/>
        <path fill="#FFF" fill-rule="nonzero" d="M4 15c0 .458.375.833.833.833h.834v2.917c0 .692.558 1.25 1.25 1.25.691 0 1.25-.558 1.25-1.25v-2.917h1.666v2.917c0 .692.559 1.25 1.25 1.25.692 0 1.25-.558 1.25-1.25v-2.917h.834A.836.836 0 0 0 14 15V6.667H4V15zM1.917 6.667c-.692 0-1.25.558-1.25 1.25v5.833c0 .692.558 1.25 1.25 1.25.691 0 1.25-.558 1.25-1.25V7.917c0-.692-.559-1.25-1.25-1.25zm14.166 0c-.691 0-1.25.558-1.25 1.25v5.833c0 .692.559 1.25 1.25 1.25.692 0 1.25-.558 1.25-1.25V7.917c0-.692-.558-1.25-1.25-1.25zM11.942 1.8L13.025.717a.413.413 0 0 0 0-.592.413.413 0 0 0-.592 0L11.2 1.358A4.866 4.866 0 0 0 9 .833c-.8 0-1.55.192-2.217.525L5.542.125a.413.413 0 0 0-.592 0 .413.413 0 0 0 0 .592l1.092 1.091A4.986 4.986 0 0 0 4 5.833h10A4.971 4.971 0 0 0 11.942 1.8zM7.333 4.167H6.5v-.834h.833v.834zm4.167 0h-.833v-.834h.833v.834z"/>
    </g>
</svg>
