<svg xmlns="http://www.w3.org/2000/svg" width="14" height="16" viewBox="0 0 14 16">
    <g fill="#FFF" fill-rule="evenodd">
        <path d="M9.452 4.847l3.449-3.66s.275-.43.408-.206l.683.63a.29.29 0 0 1 .017.408L10.32 6.03"/>
        <path d="M9.452 4.847c-.337.234-.782.117-1.054.005a.39.39 0 0 0-.44.096L.114 13.603a.445.445 0 0 0-.084.46c.218.568.878 1.854 2.407 1.97a.435.435 0 0 0 .351-.146l7.729-8.547a.386.386 0 0 0 .054-.443c-.123-.227-.267-.595-.185-.961"/>
    </g>
</svg>
