<svg xmlns="http://www.w3.org/2000/svg" width="50" height="49" viewBox="0 0 50 49">
    <defs>
        <linearGradient id="a" x1="100%" x2="0%" y1="0%" y2="100%">
            <stop offset="0%" stop-color="#D44030"/>
            <stop offset="100%" stop-color="#9B000D"/>
        </linearGradient>
    </defs>
    <g fill="none" fill-rule="nonzero">
        <path fill="url(#a)" d="M10.186 11.415L45.116.632A3 3 0 0 1 49 3.498v41.827a3 3 0 0 1-3 3H3.138a3 3 0 0 1-2.906-3.743l7.932-31.044a3 3 0 0 1 2.022-2.123z" transform="translate(.144)"/>
        <path fill="#FFF" d="M34.257 19.268a2.065 2.065 0 1 1 1.14.835l-4.906 6.689a2.065 2.065 0 1 1-3.386.053l-2.964-2.971a.574.574 0 0 1-.098-.05 2.056 2.056 0 0 1-1.548.397l-3.57 5.019a2.065 2.065 0 1 1-1.161-.724.674.674 0 0 1 .182-.296l3.315-4.662a2.065 2.065 0 1 1 3.55-.921l3.4 3.39a2.065 2.065 0 0 1 1.11-.029l4.936-6.73z"/>
    </g>
</svg>
