<svg xmlns="http://www.w3.org/2000/svg" width="18" height="20" viewBox="0 0 18 20">
    <g fill="none" fill-rule="nonzero">
        <path fill="#8B94AE" d="M16.917 3.694c-4.028-.583-6.278-2.25-7.306-3.277-.389-.39-1.028-.39-1.444 0C7.139 1.444 4.889 3.083.86 3.694a.972.972 0 0 0-.833 1.112C.583 7.833 2.722 16.944 8.417 19.75c.305.139.639.139.944 0 5.667-2.806 7.806-11.917 8.389-14.944a.972.972 0 0 0-.833-1.112z"/>
        <path fill="#FFF" d="M16.472 5.528c-.722 3.278-2.722 10.444-7.194 13a.727.727 0 0 1-.75 0c-4.472-2.556-6.5-9.722-7.195-13a.74.74 0 0 1 .584-.89C5.194 4 7.277 2.668 8.444 1.695a.752.752 0 0 1 .945 0c1.167.973 3.25 2.306 6.528 2.945a.765.765 0 0 1 .555.889z"/>
        <path fill="#8B94AE" d="M14.389 5.694c-2.75-.416-4.306-1.555-5-2.25-.111-.083-.222-.166-.361-.194-.084-.028-.167.056-.167.139v13.139a.18.18 0 0 0 .167.166.515.515 0 0 0 .194-.055c3.89-1.917 5.334-8.139 5.722-10.222.056-.306-.194-.667-.555-.723z"/>
    </g>
</svg>
