<svg xmlns="http://www.w3.org/2000/svg" width="293" height="16" viewBox="0 0 293 16">
    <path fill="#FFF" fill-rule="nonzero" d="M200 8.826V9H0V7h198.581l5.183-.797c5.79-.5 4.635-5.626 10.405-6.203h41.622c5.77.577 4.614 5.703 10.405 6.203l5.98.797H293v2h-23v-.102l-3.804.507c-5.791.5-4.636 5.626-10.405 6.203h-41.622c-5.77-.577-4.614-5.703-10.405-6.203L200 8.826z"/>
</svg>
