<svg xmlns="http://www.w3.org/2000/svg" width="22" height="21" viewBox="0 0 22 21">
    <path fill="#D44030" fill-rule="nonzero" d="M3.614 20.012h14.552a3.618 3.618 0 0 0 3.614-3.614V5.46a3.618 3.618 0 0 0-3.614-3.614h-1.899V0h-1.312v1.846H6.808V0H5.495v1.846H3.614A3.618 3.618 0 0 0 0 5.46v10.938a3.618 3.618 0 0 0 3.614 3.614zm0-16.87h1.899v1.063h1.312V3.14h8.147v1.064h1.313V3.14h1.899a2.323 2.323 0 0 1 2.318 2.32v.804H1.295v-.8A2.323 2.323 0 0 1 3.614 3.14z"/>
</svg>
