<svg xmlns="http://www.w3.org/2000/svg" width="21" height="15" viewBox="0 0 21 15">
    <path fill="#D44030" fill-rule="evenodd" d="M17.207 3.067a1.943 1.943 0 0 1-.366-1.14C16.841.863 17.688 0 18.733 0s1.892.863 1.892 1.927c0 1.065-.847 1.928-1.892 1.928-.276 0-.538-.06-.774-.169l-4.593 6.441c.311.344.501.803.501 1.307 0 1.064-.847 1.927-1.892 1.927s-1.892-.863-1.892-1.927c0-.214.034-.419.097-.61L7.518 8.13a.343.343 0 0 1-.029-.013 1.863 1.863 0 0 1-2.03.24L3.077 11.57c.431.354.707.895.707 1.503 0 1.064-.847 1.927-1.892 1.927S0 14.137 0 13.073c0-1.065.847-1.928 1.892-1.928.094 0 .186.007.276.02a.51.51 0 0 1 .053-.058L4.732 7.72a1.943 1.943 0 0 1-.334-1.094c0-1.065.847-1.927 1.892-1.927s1.892.862 1.892 1.927c0 .252-.048.493-.134.714l2.645 2.677a1.866 1.866 0 0 1 1.858-.42l4.656-6.53z"/>
</svg>
