<?xml version="1.0" encoding="UTF-8"?>
<svg width="13px" height="12px" viewBox="0 0 13 12" version="1.1" xmlns="http://www.w3.org/2000/svg" xmlns:xlink="http://www.w3.org/1999/xlink">
    <!-- Generator: Sketch 52.4 (67378) - http://www.bohemiancoding.com/sketch -->
    <title>tshirt</title>
    <desc>Created with Sketch.</desc>
    <g id="Mobile" stroke="none" stroke-width="1" fill="none" fill-rule="evenodd">
        <g id="PlayerDetails/About" transform="translate(-39.000000, -295.000000)" fill="#999999" fill-rule="nonzero">
            <g id="Group-3" transform="translate(25.000000, 274.000000)">
                <g id="tshirt" transform="translate(14.000000, 21.000000)">
                    <path d="M12.8533456,3.07546935 C12.850366,3.07239178 12.8472914,3.06937638 12.8441533,3.06645425 L10.1764891,0.741180148 C10.1521454,0.719419562 10.1237444,0.702539564 10.0928076,0.691441665 L8.16306193,0.0149982907 C8.03142209,-0.0318802299 7.88596212,0.0348004244 7.83816224,0.163902875 C7.82954051,0.187186703 7.8245323,0.211589646 7.8232644,0.236334542 C7.8232644,0.291046874 7.73958292,1.55191743 6.45393105,1.57181282 C5.16067178,1.55191743 5.0795261,0.291046874 5.0769903,0.236334542 C5.06950968,0.0991806739 4.95007339,-0.00604730508 4.81022388,0.00128912123 C4.78619715,0.00256366986 4.7624557,0.00716447958 4.73972857,0.0149982907 L2.81251868,0.698902437 C2.78158189,0.710000337 2.7531809,0.726880334 2.7288372,0.748640921 L0.0789235946,3.06645425 C-0.0226035976,3.16105063 -0.0267242766,3.31847293 0.0697313106,3.41804315 C0.0727108785,3.42112072 0.075785539,3.42413612 0.0789235946,3.42705825 L2.18871127,5.51856148 L2.18871127,11.2384871 C2.18871127,11.3758275 2.30225182,11.4871795 2.44229152,11.4871795 L10.4807854,11.4871795 C10.6208251,11.4871795 10.7343657,11.3758275 10.7343657,11.2384871 L10.7343657,5.51856148 L12.8441533,3.42705825 C12.9456805,3.33246187 12.9498012,3.17507066 12.8533456,3.07546935 Z" id="Shape"></path>
                </g>
            </g>
        </g>
    </g>
</svg>