<svg xmlns="http://www.w3.org/2000/svg" width="74" height="46" viewBox="0 0 74 46">
    <path fill="#FFF" fill-rule="evenodd" d="M22.882 90.01c-.172.433-.286.765-.351.97h-.001c-.006.019-.02.023-.034.018-.404-.213-3.73-1.877-7.65-5.154C8.035 80.152 0 69.374 0 53.919c0-21.738 16.04-32.9 16.058-32.912.024-.017.046 0 .048.019.188 1.522.67 4.75.688 4.906.094.832.076 1.329-.576 2.035 0 .001-4.18 3.779-7.208 9.013-.607 1.05-5.024 8.5-5.024 18.816 0 12.534 6.087 21.926 11.412 27.05a41.491 41.491 0 0 0 6.72 5.249c.755.5 1.075 1.03.764 1.914zm40.999-1.915a41.443 41.443 0 0 0 6.721-5.25c5.325-5.123 11.412-14.515 11.412-27.05 0-10.315-4.417-17.765-5.024-18.815-3.028-5.234-7.207-9.012-7.207-9.013-.654-.706-.671-1.203-.577-2.035.018-.155.501-3.384.687-4.906.004-.02.024-.036.05-.019C69.96 21.02 86 32.181 86 53.92c0 15.454-8.037 26.233-14.845 31.925-3.921 3.277-7.247 4.941-7.652 5.154-.013.005-.027 0-.033-.019h-.001a14.947 14.947 0 0 0-.351-.97c-.311-.883.01-1.414.763-1.914zm-3.997 3.89c-4.315-2.13-10.175-3.348-16.884-3.348-6.717 0-12.578 1.174-16.883 3.349-.066.033-.135.003-.113-.131C27.28 84.605 35.048 82 43.001 82c7.994 0 15.787 2.659 16.994 9.855.028.145-.064.164-.111.13zM29 13.967c.327-3.725 2.022-7.226 4.612-9.784C36.342 1.489 39.95-.008 43.699 0c4.058 0 6.969 1.795 7.264 1.978.047.027.047.057.013.075-3.422 1.751-5.893 4.181-8.192 7.305-.3.407-.37.48-.812.53-.177.02-.107-.13-.06-.238 1.018-2.303 3.244-5.025 5.415-6.697.155-.12.193-.294-.007-.365a6.825 6.825 0 0 0-.801-.22c-4.617-1.047-9.145.798-11.961 4.285-2.355 2.914-2.683 6.11-2.737 6.267a.33.33 0 0 1-.208.203c-.44.12-1.745.555-2.57.875-.016.006-.045.001-.043-.032zm25.237-9.952c.076-.023.138-.024.21.039.096.084.185.174.276.263 2.424 2.393 3.924 5.427 4.277 8.65.003.032-.023.039-.047.031a91.572 91.572 0 0 0-2.317-.704.378.378 0 0 1-.284-.282 12.632 12.632 0 0 0-.92-2.886c-.513-1.107-1.213-2.338-2.157-3.2-.052-.048-.139-.11-.308-.059-.954.28-3.088 1.453-4.968 3.152-.331.3-.557.245-.826.245-.145 0-.214-.05-.147-.14 1.643-2.187 4.95-4.43 7.211-5.109zm-2.5.012c.076-.03.143-.043.233.01.22.127.7.455.996.666.05.035.043.067-.01.087-3 .973-5.259 2.34-8.08 4.998-.176.167-.373.164-.618.203-.148.022-.323.02-.234-.123.08-.128.186-.261.275-.372 2.184-2.712 5.154-4.533 7.438-5.469zM29 21.024c-.001-.028.026-.03.032-.009.002.01 1.133 4.818 5.45 8.03 2.241 1.667 5.238 3.25 9.457 3.254h.122c5.046-.018 8.203-2.327 9.455-3.255 4.16-3.074 5.39-7.755 5.452-8.031.004-.021.032-.016.032.012.003.058-.02.321-.04.577-.049.533-.178 1.999-.192 2.147-.066.653-.912 8.372-1.11 10.42a374.158 374.158 0 0 1-1.294 10.15c-2.07 13.216-5.099 22.252-6.84 26.782a171.032 171.032 0 0 1-3.157 7.4 1.248 1.248 0 0 1-.334.422c-.035.026-.26.187-.314-.053a1.06 1.06 0 0 1-.003-.307c.05-.47.492-3.74 1.032-9.243.356-3.622.851-8.843 1.195-13.889.353-5.174.81-13.418.866-14.591.056-1.174.28-6.759.28-7.021 0-.309-.175-.463-.444-.411-.362.072-1.434.3-1.692.384-.37.12-.38.33-.389.49-.01.16-.222 7.448-.338 9.5-.115 2.053-.744 12.866-.907 14.371-.016.146-.054.193-.06.134-.005-.054-.017-.23-.017-.23-.004-.095-.031-2.58.002-4.054.022-.963.045-19.32.045-19.646 0-.21-.095-.344-.366-.336a22.91 22.91 0 0 1-.923.015c-.311.002-.616-.004-.923-.015-.272-.008-.367.127-.367.336 0 .326.022 18.683.044 19.646.034 1.474.006 3.959.001 4.055 0 0-.009.175-.016.23-.007.058-.043.01-.058-.135-.163-1.505-.794-12.318-.908-14.372-.115-2.051-.329-9.339-.339-9.499-.009-.16-.019-.37-.387-.49-.259-.085-1.331-.312-1.693-.384-.27-.052-.444.102-.444.41 0 .263.224 5.848.28 7.022.056 1.173.512 9.417.865 14.591.345 5.046.84 10.267 1.195 13.889.54 5.502.983 8.773 1.033 9.243a.986.986 0 0 1-.004.307c-.052.24-.278.079-.312.053a1.24 1.24 0 0 1-.335-.422 171.032 171.032 0 0 1-3.157-7.4c-1.742-4.53-4.77-13.566-6.841-26.782-.476-3.378-.907-6.761-1.293-10.15-.198-2.048-1.044-9.767-1.11-10.42-.014-.148-.143-1.614-.192-2.147-.02-.256-.041-.518-.039-.578zm6.226-3.948c4.024-.969 6.963-1.074 8.275-1.076 1.311.002 4.25.107 8.274 1.076C55.659 18.012 59 19.49 59 19.49s-.008.198-.056.29c-.021.042-.08.087-.203.052-.344-.098-2.065-.673-2.339-.76-.043-.015-.227-.09-.39-.002-.153.083-.175.21-.215.346-1.526 5.307-6.015 9.378-11.68 9.578-.557.019-1.28-.001-1.826-.148-.2-.053-.348-.229-.48-.554-.15-.368-.226-.8-.162-1.696.148-2.082.829-4.57 1.616-6.715.172-.465.356-.901.426-1.116.024-.072-.056-.057-.083-.048-.25.08-.567.303-.929.894-1.25 2.04-2.43 5.588-2.368 8.879-.266-.081-1.13-.304-1.324-.789-.715-1.787.89-6.907 1.798-8.903.019-.053.02-.133-.183-.015-.167.098-.37.264-.647.63-.704.929-2.244 3.916-2.535 7.757-.347-.212-.987-.595-1.06-1.019-.376-2.16 1.327-6.69 1.457-7.064.015-.042.078-.182-.174-.054-.212.11-.346.261-.532.495-.37.465-1.558 2.583-2.013 5.775-1.633-1.654-2.825-3.748-3.455-6.065a.587.587 0 0 0-.152-.287c-.105-.088-.256-.09-.446-.03-.133.042-2.7.888-2.785.91-.123.036-.181-.009-.202-.05a.957.957 0 0 1-.058-.29s3.343-1.479 7.226-2.415zM22.42 30.78c.753 5.076 1.721 10.223 4.123 18.608 2.375 8.292 6.033 18.367 11.372 28.386.201.377.058.796-.309.998-2.381 1.307-3.666 1.971-5.533 3.956-.16.17-.058.298.077.266.327-.134 2.587-1.031 5.1-1.516 2.542-.49 4.994-.523 5.75-.524.756.001 3.208.034 5.752.524 2.51.485 4.771 1.382 5.1 1.516.133.032.236-.096.075-.266-1.866-1.985-3.152-2.649-5.533-3.956-.367-.202-.51-.62-.309-.998 5.339-10.02 8.997-20.094 11.372-28.386 2.402-8.385 3.37-13.532 4.123-18.608.655-4.419 1.27-9.952 1.399-11.474.086-1.015-.094-1.375-.49-1.672-.315-.237-1.63-.88-1.659-.894-.027-.014-.028.008-.03.019-.002.013-.32 4.427-.941 9.1-.404 3.04-.839 5.818-1.108 7.297-.282 1.592-.58 3.181-.894 4.768-.108.526-.2.855-.256 1.06-.036.143-.09.281-.158.411-.029.049-.06.077-.088.084-.027.006-.053.002-.05-.011.002-.013.056-.215.406-2.63.16-1.092.395-2.627.668-4.834.427-3.42.766-7.106.879-8.498.329-4.067.464-7.266.464-7.266s.01-.058-.078-.098c-.003-.003-3.296-1.758-9.122-3.075-4.14-.935-7.021-1.065-9.464-1.068h-.116c-2.443.003-5.324.133-9.464 1.068-5.826 1.317-9.12 3.072-9.122 3.075-.09.04-.078.098-.078.098s.135 3.199.464 7.266c.113 1.392.452 5.077.879 8.498.274 2.207.508 3.742.668 4.834.351 2.415.404 2.617.407 2.63.002.013-.024.017-.051.011-.028-.007-.059-.035-.088-.084a1.847 1.847 0 0 1-.158-.41c-.056-.206-.148-.535-.256-1.061-.237-1.144-.626-3.29-.894-4.768-.27-1.479-.704-4.256-1.108-7.297-.62-4.673-.94-9.087-.94-9.1-.003-.011-.004-.033-.031-.02-.03.014-1.344.658-1.66.895-.395.297-.575.657-.489 1.672.129 1.522.744 7.055 1.4 11.474zm-5.1 3.24c.438-.414.774-.848.656-1.65-.112-.78-.226-1.56-.342-2.339-.006-.029-.028-.042-.052-.023l-.07.061C15.736 31.568 5 40.654 5 56.767c0 7.919 2.704 15.242 7.285 21.194.01.013.022.024.035.033.03.019.133-.004.065-.117-.189-.315-.24-.408-.81-1.332-2.13-3.458-5.208-9.653-5.208-17.814 0-14.416 9.083-22.926 10.954-24.71zm51.36 0c-.438-.414-.774-.848-.656-1.65l.342-2.339c.004-.029.028-.042.052-.023l.07.061C70.265 31.568 81 40.654 81 56.767c0 7.919-2.704 15.242-7.285 21.194a.147.147 0 0 1-.035.033c-.03.019-.133-.004-.065-.117.19-.315.242-.408.81-1.332 2.13-3.458 5.209-9.653 5.209-17.814 0-14.416-9.084-22.926-10.955-24.71z" opacity=".25"/>
</svg>
