<svg xmlns="http://www.w3.org/2000/svg" width="21" height="24" viewBox="0 0 21 24">
    <g fill="none" fill-rule="evenodd" stroke-linecap="round">
        <path stroke="#FF962E" stroke-linejoin="round" d="M8.889 9.977c-.009.01 3.06 2.634 3.06 2.634l-3.06-2.634z"/>
        <path stroke="#FFBE2C" d="M13.551 6.232c-.446.312-1.037.157-1.398.008a.519.519 0 0 0-.585.127L1.152 17.852a.591.591 0 0 0-.112.61c.29.755 1.166 2.462 3.197 2.617a.58.58 0 0 0 .466-.195L14.966 9.541a.512.512 0 0 0 .071-.588c-.162-.301-.355-.79-.246-1.275"/>
        <path stroke="#FF962E" d="M13.94 6.974l-.366-.337a.384.384 0 0 1-.022-.543M13.552 6.094l4.58-4.97a.385.385 0 0 1 .542-.023l.907.836a.383.383 0 0 1 .022.542l-4.898 5.325"/>
        <g stroke-width=".7">
            <path stroke="#FFBE2C" stroke-dasharray="1" d="M15.832 16.29s-.334 3.853-5.176 5.397"/>
            <path stroke="#FF962E" d="M17.272 19.207a3.76 3.76 0 1 0-.118.937"/>
        </g>
    </g>
</svg>
