<svg xmlns="http://www.w3.org/2000/svg" width="22" height="22" viewBox="0 0 22 22">
    <g fill="none" fill-rule="evenodd">
        <path d="M-1-1h24v24H-1z"/>
        <g stroke-linecap="round">
            <path stroke="#FFBE2C" stroke-dasharray="2" d="M17.153 3.462s-.875 10.072-13.53 14.106"/>
            <path stroke="#FF962E" d="M20.915 11.085c0-5.428-4.4-9.829-9.83-9.829-5.428 0-9.828 4.4-9.828 9.83 0 5.428 4.4 9.829 9.828 9.829a9.826 9.826 0 0 0 9.521-7.38"/>
        </g>
    </g>
</svg>
