<svg xmlns="http://www.w3.org/2000/svg" width="23" height="21" viewBox="0 0 23 21">
    <path fill="none" fill-rule="nonzero" stroke="#727682" d="M8.297 19.727v-6.2h5.8v6.2h5.001v-9.599h2.796L11.198.5.5 10.128h2.797v9.599h5z"/>
</svg>
