<svg xmlns="http://www.w3.org/2000/svg" width="8" height="13" viewBox="0 0 8 13">
    <g fill="none" fill-rule="evenodd">
        <path fill-rule="nonzero" d="M-4-2h16v16H-4z"/>
        <path fill="#141B2F" d="M.5 1.9l4.351 4.6L.5 11.1l1.324 1.4 5.676-6-5.676-6z" opacity=".7"/>
    </g>
</svg>
