<svg xmlns="http://www.w3.org/2000/svg" width="16" height="16" viewBox="0 0 16 16">
    <path fill="#D44030" fill-rule="evenodd" d="M7.992 0C12.415 0 16 3.585 16 8s-3.585 8-8.008 8C3.576 16 0 12.415 0 8s3.576-8 7.992-8zM6.734 10.982h2.42v-5.72h-2.42v5.72z"/>
</svg>
